{
 "total": 3,
 "items": [
  {
   "type": "Mesh",
   "name": "m1",
   "creationTime": "0001-01-01T00:00:00Z",
   "modificationTime": "0001-01-01T00:00:00Z"
  },
  {
   "type": "Mesh",
   "name": "m2",
   "creationTime": "0001-01-01T00:00:00Z",
   "modificationTime": "0001-01-01T00:00:00Z"
  }
 ],
 "next": "http://{{address}}/meshes?offset=2&size=2"
}
